{
  "kind": "collectionType",
  "collectionName": "categories",
  "info": {
    "name": "category"
  },
  "options": {
    "increments": true,
    "timestamps": true
  },
  "attributes": {
    "name": {
      "type": "string",
      "required": true,
      "unique": true
    },
    "products": {
      "via": "category",
      "collection": "product"
    },
    "sub_categories": {
      "via": "category",
      "collection": "sub-category"
    },
    "slug": {
      "type": "uid",
      "targetField": "name"
    }
  }
}
